/* XPM */
static char * title_1_active_xpm[] = {
"4 18 5 1",
" 	c None",
".	c #000000",
"+	c #FFFFFF s active_hilight_1",
"@	c #343434 s active_shadow_1",
"#	c #747474 s active_color_1",
"....",
"++++",
"####",
"####",
"####",
"####",
"####",
"####",
"####",
"####",
"####",
"####",
"####",
"####",
"####",
"####",
"@@@@",
"...."};
